Student Performance Report
…
data %>% group_by(gender) %>% count(gender)

## # A tibble: 2 x 2
## # Groups:   gender [2]
##   gender     n
##   <chr>  <int>
## 1 female   518
## 2 male     482

data %>% group_by(gender) %>% count(math.score)

## # A tibble: 147 x 3
## # Groups:   gender [2]
##    gender math.score     n
##    <chr>       <dbl> <int>
##  1 female          0     1
##  2 female          8     1
##  3 female         18     1
##  4 female         19     1
##  5 female         22     1
##  6 female         23     1
##  7 female         24     1
##  8 female         26     1
##  9 female         27     1
## 10 female         29     3
## #  with 137 more rows

data %>% group_by(gender) %>% count(reading.score)

## # A tibble: 132 x 3
## # Groups:   gender [2]
##    gender reading.score     n
##    <chr>          <dbl> <int>
##  1 female            17     1
##  2 female            24     1
##  3 female            29     1
##  4 female            31     1
##  5 female            32     1
##  6 female            34     2
##  7 female            38     2
##  8 female            39     2
##  9 female            40     1
## 10 female            41     2
## #  with 122 more rows

data %>% group_by(gender) %>% count(writing.score)

## # A tibble: 136 x 3
## # Groups:   gender [2]
##    gender writing.score     n
##    <chr>          <dbl> <int>
##  1 female            10     1
##  2 female            23     1
##  3 female            27     1
##  4 female            28     1
##  5 female            30     1
##  6 female            32     2
##  7 female            33     2
##  8 female            36     1
##  9 female            38     3
## 10 female            39     1
## #  with 126 more rows
…
data %>% filter(reading.score > 90 & math.score < 75)

## # A tibble: 1 x 11
##   gender `race/ethnicity` parent.edu lunch `test preparati math.score
##   <chr>  <chr>            <chr>      <chr> <chr>                 <dbl>
## 1 female group D          high scho free none                     73
## #  with 5 more variables: reading.score <dbl>, writing.score <dbl>,
## #   math.above.below <chr>, reading.above.below <chr>,
## #   writing.above.below <chr>

data %>% filter(parent.edu == "some high school")

## # A tibble: 179 x 11
##    gender `race/ethnicity` parent.edu lunch `test preparati math.score
##    <chr>  <chr>            <chr>      <chr> <chr>                 <dbl>
##  1 female group C          some high stan none                     69
##  2 female group B          some high free none                     18
##  3 female group C          some high stan none                     69
##  4 female group D          some high free none                     50
##  5 female group C          some high free completed                71
##  6 female group C          some high free none                      0
##  7 male   group A          some high free none                     39
##  8 female group D          some high stan none                     59
##  9 male   group B          some high stan none                     67
## 10 male   group D          some high free none                     45
## #  with 169 more rows, and 5 more variables: reading.score <dbl>,
## #   writing.score <dbl>, math.above.below <chr>, reading.above.below <chr>,
## #   writing.above.below <chr>

data %>% filter(parent.edu == "some college")

## # A tibble: 226 x 11
##    gender `race/ethnicity` parent.edu lunch `test preparati math.score
##    <chr>  <chr>            <chr>      <chr> <chr>                 <dbl>
##  1 female group C          some coll stan completed                69
##  2 male   group C          some coll stan none                     76
##  3 female group B          some coll stan completed                88
##  4 male   group B          some coll free none                     40
##  5 male   group A          some coll stan completed                78
##  6 female group B          some coll free completed                65
##  7 male   group D          some coll stan none                     44
##  8 male   group B          some coll stan none                     69
##  9 female group D          some coll stan none                     69
## 10 female group B          some coll stan none                     63
## #  with 216 more rows, and 5 more variables: reading.score <dbl>,
## #   writing.score <dbl>, math.above.below <chr>, reading.above.below <chr>,
## #   writing.above.below <chr>

data %>% filter(parent.edu == "some college" & `test preparation course` == "completed")

## # A tibble: 77 x 11
##    gender `race/ethnicity` parent.edu lunch `test preparati math.score
##    <chr>  <chr>            <chr>      <chr> <chr>                 <dbl>
##  1 female group C          some coll stan completed                69
##  2 female group B          some coll stan completed                88
##  3 male   group A          some coll stan completed                78
##  4 female group B          some coll free completed                65
##  5 male   group B          some coll free completed                59
##  6 male   group D          some coll stan completed                58
##  7 female group D          some coll free completed                58
##  8 male   group D          some coll stan completed                63
##  9 male   group A          some coll free completed                50
## 10 female group E          some coll stan completed                63
## #  with 67 more rows, and 5 more variables: reading.score <dbl>,
## #   writing.score <dbl>, math.above.below <chr>, reading.above.below <chr>,
## #   writing.above.below <chr>
…
